<svg width="153" height="154" viewBox="0 0 153 154" fill="none" xmlns="http://www.w3.org/2000/svg">
<path d="M0.161621 0.835449V59.4292H58.7554V24.2729H70.4741V12.5542H58.7554V0.835449H0.161621ZM47.0366 47.7104H11.8804V12.5542H47.0366V47.7104Z" fill="white"/>
<path d="M152.505 153.179V94.5854H129.068V82.8667H117.349V94.5854H82.1929V106.304H93.9116V118.023H82.1929V129.742H93.9116V153.179H152.505ZM105.63 106.304H140.787V141.46H105.63V106.304Z" fill="white"/>
<path d="M35.3179 82.8667H58.7554V71.1479H0.161621V82.8667H23.5991V94.5854H11.8804V106.304H23.5991V129.742H11.8804V141.46H23.5991V153.179H82.1929V141.46H70.4741V129.742H58.7554V141.46H35.3179V129.742H47.0366V118.023H35.3179V82.8667Z" fill="white"/>
<path d="M23.5991 24.2729H35.3179V35.9917H23.5991V24.2729Z" fill="white"/>
<path d="M117.349 24.2729H129.068V35.9917H117.349V24.2729Z" fill="white"/>
<path d="M129.068 59.4292H152.505V0.835449H93.9116V59.4292H117.349V71.1479H129.068V59.4292ZM105.63 47.7104V12.5542H140.787V47.7104H105.63Z" fill="white"/>
<path d="M152.505 82.8667V71.1479C149.67 71.1479 131.923 71.1479 129.068 71.1479V82.8667H152.505Z" fill="white"/>
<path d="M117.349 118.023H129.068V129.742H117.349V118.023Z" fill="white"/>
<path d="M70.4741 106.304H82.1929V118.023H70.4741V106.304Z" fill="white"/>
<path d="M47.0366 118.023H58.7554C58.7554 115.188 58.7554 97.4404 58.7554 94.5854H47.0366V118.023Z" fill="white"/>
<path d="M58.7554 82.8667H70.4741V94.5854H58.7554V82.8667Z" fill="white"/>
<path d="M11.8804 106.304H0.161621V129.742H11.8804C11.8804 126.907 11.8804 109.159 11.8804 106.304Z" fill="white"/>
<path d="M0.161621 141.46H11.8804V153.179H0.161621V141.46Z" fill="white"/>
<path d="M70.4741 0.835449H82.1929V12.5542H70.4741V0.835449Z" fill="white"/>
<path d="M70.4741 47.7104H82.1929C82.1929 44.8754 82.1929 27.1279 82.1929 24.2729H70.4741V47.7104Z" fill="white"/>
<path d="M82.1929 71.1479V59.4292H70.4741V82.8667H117.349V71.1479H82.1929Z" fill="white"/>
</svg>
