<svg width="36" height="36" viewBox="0 0 36 36" fill="none" xmlns="http://www.w3.org/2000/svg">
<path d="M34.7411 17.6789C34.7411 27.0183 27.1702 34.5894 17.8308 34.5894C8.49142 34.5894 0.92041 27.0183 0.92041 17.6789C0.92041 8.33956 8.49142 0.768555 17.8308 0.768555C27.1701 0.768555 34.7411 8.33956 34.7411 17.6789Z" fill="#E9973C"/>
<path d="M34.7411 17.6789C34.7411 27.0183 27.1702 34.5894 17.8308 34.5894C8.49142 34.5894 0.92041 27.0183 0.92041 17.6789C0.92041 8.33956 8.49142 0.768555 17.8308 0.768555C27.1701 0.768555 34.7411 8.33956 34.7411 17.6789" stroke="#E9973C"/>
<path fill-rule="evenodd" clip-rule="evenodd" d="M22.8243 14.9825C22.6823 13.4375 21.3513 12.9138 19.6687 12.7589L19.6781 10.6165L18.3737 10.611L18.3646 12.6969C18.0221 12.6953 17.6717 12.7005 17.3235 12.7059L17.333 10.6063L16.0296 10.6004L16.0197 12.7422C15.7373 12.7467 15.4601 12.7507 15.1897 12.7497L15.1896 12.7431L13.391 12.7345L13.3852 14.1272C13.3852 14.1272 14.3482 14.1131 14.3321 14.1308C14.8603 14.1333 15.0312 14.4406 15.0797 14.7055L15.069 17.1461C15.1055 17.1465 15.153 17.1482 15.2068 17.1558L15.0694 17.1553L15.0536 20.5744C15.0297 20.7405 14.9308 21.0051 14.5618 21.0041C14.5784 21.019 13.6139 20.9997 13.6139 20.9997L13.348 22.5563L15.0453 22.5636C15.2369 22.5647 15.4266 22.5676 15.6143 22.5705L15.6145 22.5705C15.736 22.5723 15.8567 22.5742 15.9765 22.5755L15.9676 24.7426L17.2702 24.7486L17.28 22.6046C17.6373 22.6137 17.9834 22.6181 18.3213 22.6193L18.3113 24.7532L19.6153 24.7588L19.6253 22.596C21.8182 22.4799 23.3554 21.9342 23.5545 19.8769C23.7156 18.2198 22.9394 17.4766 21.6962 17.1719C22.4538 16.7895 22.9295 16.1133 22.8239 14.9826L22.8243 14.9825ZM20.9788 19.6075C20.9725 21.0937 18.6376 21.0506 17.5702 21.0309C17.4746 21.0291 17.3892 21.0275 17.3165 21.0273L17.3295 18.1565C17.4184 18.1569 17.5263 18.1548 17.6485 18.1525L17.6485 18.1525C18.7427 18.1315 20.985 18.0885 20.9791 19.6074L20.9788 19.6075ZM17.55 16.8461C18.4412 16.8646 20.3837 16.905 20.39 15.5547C20.3963 14.1734 18.5272 14.2148 17.6143 14.235C17.5117 14.2373 17.4211 14.2393 17.3467 14.239L17.3351 16.8426C17.3965 16.8429 17.4689 16.8444 17.55 16.8461Z" fill="white"/>
</svg>
