<svg width="8" height="14" viewBox="0 0 8 14" fill="none" xmlns="http://www.w3.org/2000/svg">
<path d="M1.08398 1.17773L6.58398 6.67773L1.08398 12.1777" stroke="#17192E" stroke-width="2" stroke-linecap="round" stroke-linejoin="round"/>
</svg>
