<svg width="23" height="23" viewBox="0 0 23 23" fill="none" xmlns="http://www.w3.org/2000/svg">
<path d="M9.08366 20.8441H7.25033C3.58366 20.8441 2.66699 19.9274 2.66699 16.2607V7.09408C2.66699 3.42741 3.58366 2.51074 7.25033 2.51074H8.62533C10.0003 2.51074 10.3028 2.91409 10.8253 3.61075L12.2003 5.44409C12.5487 5.90242 12.7503 6.17741 13.667 6.17741H16.417C20.0837 6.17741 21.0003 7.09408 21.0003 10.7607V12.5941" stroke="#17192E" stroke-width="1.5" stroke-miterlimit="10" stroke-linecap="round" stroke-linejoin="round"/>
<path d="M13.4477 17.4714C11.2935 17.6273 11.2935 20.7439 13.4477 20.8997H18.5443C19.1585 20.8997 19.7635 20.6706 20.2127 20.2581C21.7252 18.9381 20.9185 16.2981 18.9293 16.0506C18.2143 11.7514 11.9993 13.3831 13.466 17.4806" stroke="#17192E" stroke-width="1.5" stroke-miterlimit="10" stroke-linecap="round" stroke-linejoin="round"/>
</svg>
