<svg width="23" height="15" viewBox="0 0 23 15" fill="none" xmlns="http://www.w3.org/2000/svg">
<path d="M5.33784 3.57006C8.92557 0.0573757 14.7424 0.0573757 18.3302 3.57006L18.7619 3.99282C18.9413 4.16845 18.9413 4.45321 18.7619 4.62884L17.2849 6.07501C17.1952 6.16283 17.0498 6.16283 16.9601 6.07501L16.3659 5.49325C13.863 3.04271 9.805 3.04271 7.30212 5.49325L6.66579 6.11627C6.57609 6.20409 6.43067 6.20409 6.34098 6.11627L4.86391 4.6701C4.68453 4.49447 4.68453 4.20971 4.86391 4.03407L5.33784 3.57006ZM21.3849 6.56089L22.6994 7.84798C22.8788 8.02362 22.8788 8.30838 22.6994 8.48401L16.7719 14.2877C16.5925 14.4633 16.3016 14.4633 16.1223 14.2877C16.1223 14.2877 16.1223 14.2877 16.1223 14.2877L11.9152 10.1687C11.8704 10.1247 11.7977 10.1247 11.7528 10.1687L7.54588 14.2877C7.3665 14.4633 7.07565 14.4633 6.89627 14.2877C6.89627 14.2877 6.89626 14.2877 6.89627 14.2877L0.968524 8.48394C0.789138 8.3083 0.789138 8.02354 0.968524 7.84791L2.28311 6.56081C2.4625 6.38518 2.75334 6.38518 2.93273 6.56081L7.13982 10.6799C7.18467 10.7238 7.25738 10.7238 7.30223 10.6799C7.30223 10.6799 7.30223 10.6799 7.30223 10.6799L11.5091 6.56081C11.6885 6.38518 11.9793 6.38517 12.1587 6.5608C12.1587 6.5608 12.1587 6.5608 12.1587 6.5608L16.3658 10.6799C16.4107 10.7238 16.4834 10.7238 16.5282 10.6799L20.7352 6.56089C20.9146 6.38525 21.2055 6.38525 21.3849 6.56089Z" fill="#17192E"/>
</svg>
