<svg width="23" height="23" viewBox="0 0 23 23" fill="none" xmlns="http://www.w3.org/2000/svg">
<path d="M11.8887 15.4908V10.9075" stroke="white" stroke-width="1.5" stroke-miterlimit="10" stroke-linecap="round" stroke-linejoin="round"/>
<path d="M14.1253 13.199H9.54199" stroke="white" stroke-width="1.5" stroke-miterlimit="10" stroke-linecap="round" stroke-linejoin="round"/>
<path d="M21.0003 10.449V15.949C21.0003 19.6156 20.0837 20.5323 16.417 20.5323H7.25033C3.58366 20.5323 2.66699 19.6156 2.66699 15.949V6.78231C2.66699 3.11564 3.58366 2.19897 7.25033 2.19897H8.62533C10.0003 2.19897 10.3028 2.60231 10.8253 3.29897L12.2003 5.13231C12.5487 5.59064 12.7503 5.86564 13.667 5.86564H16.417C20.0837 5.86564 21.0003 6.78231 21.0003 10.449Z" stroke="white" stroke-width="1.5" stroke-miterlimit="10"/>
</svg>
