<svg width="35" height="34" viewBox="0 0 35 34" fill="none" xmlns="http://www.w3.org/2000/svg">
<path d="M33.9307 17C33.9307 26.1127 26.5434 33.5 17.4307 33.5C8.31797 33.5 0.930664 26.1127 0.930664 17C0.930664 7.8873 8.31797 0.5 17.4307 0.5C26.5434 0.5 33.9307 7.8873 33.9307 17Z" stroke="#262626"/>
<path d="M17.5176 14.2355L19.9714 15.6178V18.3825L17.5176 19.7649L15.0638 18.3825V15.6171L17.5176 14.2355ZM17.5176 13.74C17.4288 13.7399 17.3413 13.7627 17.2638 13.8062L14.81 15.1886C14.7334 15.231 14.6696 15.2932 14.6249 15.3686C14.5803 15.4441 14.5566 15.5301 14.5562 15.6178V18.3825C14.5566 18.4702 14.5804 18.5563 14.625 18.6317C14.6696 18.7071 14.7335 18.7693 14.81 18.8117L17.2638 20.1941C17.3414 20.2377 17.4289 20.2606 17.5178 20.2606C17.6068 20.2606 17.6942 20.2377 17.7718 20.1941L20.2256 18.8117C20.3022 18.7693 20.366 18.7071 20.4106 18.6317C20.4553 18.5563 20.479 18.4702 20.4795 18.3825V15.6171C20.479 15.5294 20.4553 15.4434 20.4106 15.3679C20.366 15.2925 20.3022 15.2303 20.2256 15.1879L17.7718 13.8055C17.6943 13.762 17.6069 13.7392 17.518 13.7393" fill="#262626"/>
<path d="M17.5178 7.90859L25.5865 12.4544V21.5456L17.5178 26.0913L14.0213 24.1209V21.4018L16.9793 23.0682C17.1442 23.1606 17.3299 23.2092 17.5188 23.2092C17.7077 23.2092 17.8934 23.1606 18.0583 23.0682L22.6348 20.49C22.7974 20.3999 22.9332 20.2679 23.028 20.1077C23.1228 19.9474 23.1733 19.7647 23.1743 19.5783V14.4234C23.1733 14.237 23.1228 14.0543 23.028 13.8941C22.9331 13.7338 22.7974 13.6018 22.6348 13.5117L18.0569 10.9317C17.892 10.8393 17.7063 10.7908 17.5174 10.7908C17.3285 10.7908 17.1428 10.8393 16.9779 10.9317L12.4014 13.5099C12.2388 13.6 12.1031 13.7321 12.0083 13.8923C11.9134 14.0526 11.8629 14.2353 11.8619 14.4216V22.9051L9.44938 21.5456V12.4544L17.5178 7.90859ZM17.5178 7C17.3547 6.99981 17.1943 7.04172 17.052 7.12168L8.9833 11.6675C8.84291 11.7452 8.72575 11.8592 8.64388 11.9975C8.56202 12.1358 8.51842 12.2935 8.51758 12.4544V21.5456C8.51842 21.7064 8.56202 21.8641 8.64388 22.0025C8.72575 22.1408 8.84291 22.2547 8.9833 22.3325L11.3958 23.692C11.5381 23.7718 11.6984 23.8137 11.8614 23.8137C12.0244 23.8137 12.1847 23.7718 12.3269 23.692C12.4673 23.6143 12.5845 23.5003 12.6664 23.362C12.7482 23.2237 12.7918 23.066 12.7927 22.9051V14.4216C12.7929 14.3961 12.7999 14.3711 12.8129 14.3492C12.8259 14.3272 12.8445 14.3092 12.8668 14.2968L17.4433 11.7187C17.4659 11.7059 17.4913 11.6993 17.5172 11.6993C17.5431 11.6993 17.5686 11.7059 17.5912 11.7187L22.1677 14.2968C22.1899 14.3092 22.2084 14.3273 22.2214 14.3492C22.2343 14.3712 22.2412 14.3962 22.2414 14.4216V19.5765C22.2412 19.6021 22.2343 19.6271 22.2213 19.649C22.2082 19.671 22.1896 19.6891 22.1673 19.7014L17.5915 22.2813C17.5689 22.294 17.5435 22.3006 17.5176 22.3006C17.4917 22.3006 17.4662 22.294 17.4436 22.2813L14.4856 20.6149C14.3434 20.5351 14.1831 20.4931 14.0201 20.4931C13.8571 20.4931 13.6968 20.5351 13.5545 20.6149C13.4141 20.6926 13.2969 20.8065 13.2151 20.9449C13.1332 21.0832 13.0896 21.2409 13.0888 21.4018V24.1209C13.0897 24.2818 13.1333 24.4395 13.2151 24.5778C13.297 24.7161 13.4142 24.8301 13.5545 24.9078L17.051 26.8783C17.1932 26.9581 17.3535 27 17.5165 27C17.6795 27 17.8398 26.9581 17.9821 26.8783L26.0519 22.3325C26.1922 22.2547 26.3094 22.1408 26.3913 22.0025C26.4731 21.8641 26.5167 21.7064 26.5176 21.5456V12.4544C26.5168 12.2935 26.4732 12.1358 26.3913 11.9974C26.3095 11.8591 26.1923 11.7452 26.0519 11.6675L17.9831 7.12168C17.841 7.04182 17.6807 6.99992 17.5178 7Z" fill="#262626"/>
</svg>
