<svg width="25" height="25" viewBox="0 0 25 25" fill="none" xmlns="http://www.w3.org/2000/svg">
<path d="M6.83398 15.9868L12.834 9.98682L18.834 15.9868" stroke="white" stroke-width="2" stroke-linecap="round" stroke-linejoin="round"/>
</svg>
